<svg xmlns="http://www.w3.org/2000/svg" xmlns:xlink="http://www.w3.org/1999/xlink" preserveAspectRatio="xMidYMid" width="34" height="35" viewBox="0 0 34 35">
  <path fill="#1e1015" opacity="0.13" fill-rule="evenodd" d="M16.944,34.282 C7.641,34.282 0.073,26.731 0.073,17.450 C0.073,8.170 7.641,0.619 16.944,0.619 C26.246,0.619 33.815,8.170 33.815,17.450 C33.815,26.731 26.246,34.282 16.944,34.282 ZM16.944,4.201 C9.621,4.201 3.662,10.144 3.662,17.450 C3.662,24.757 9.621,30.700 16.944,30.700 C24.267,30.700 30.225,24.757 30.225,17.450 C30.225,10.144 24.267,4.201 16.944,4.201 ZM25.736,19.702 L16.766,19.702 C15.998,19.702 15.377,19.082 15.377,18.317 L15.377,7.836 C15.377,7.071 15.998,6.450 16.766,6.450 C17.533,6.450 18.155,7.071 18.155,7.836 L18.155,16.931 L25.736,16.931 C26.503,16.931 27.125,17.551 27.125,18.317 C27.125,19.082 26.503,19.702 25.736,19.702 Z"/>
</svg>
