<svg xmlns="http://www.w3.org/2000/svg" xmlns:xlink="http://www.w3.org/1999/xlink" preserveAspectRatio="xMidYMid" width="417" height="423" viewBox="0 0 417 423">
  <g>
    <ellipse cx="208.5" cy="211.5" rx="203.5" ry="206.5" class="cls-1" fill="#0c1013" stroke="#587798" stroke-width="6px"/>
    <g>
      <path d="M212.793,211.580 C212.793,211.580 226.213,279.569 231.006,288.187 C236.757,296.806 258.805,315.000 258.805,315.000 C269.357,308.205 282.769,291.060 282.769,291.060 L301.941,289.145 C301.941,289.145 335.012,285.793 353.704,266.163 C349.391,262.332 345.077,260.417 345.077,260.417 C345.077,260.417 359.456,254.193 362.331,247.011 C357.538,245.095 345.077,242.223 345.077,242.223 C345.077,242.223 370.000,233.125 370.000,218.283 C359.456,218.283 354.663,218.283 354.663,218.283 C354.663,218.283 369.041,206.313 369.041,196.258 C360.336,196.144 353.704,197.216 353.704,197.216 C353.704,197.216 368.083,177.106 367.124,166.572 C360.414,168.966 352.746,170.403 352.746,170.403 C352.746,170.403 364.249,152.208 361.373,139.760 C355.142,143.590 344.598,148.857 339.325,150.293 C345.556,136.408 346.515,121.565 343.160,111.989 C338.846,118.214 329.260,126.832 324.947,128.269 C327.343,113.426 326.385,100.977 321.112,90.922 C317.757,96.189 311.527,106.244 311.527,106.244 C311.527,106.244 309.130,82.304 302.899,73.686 C299.625,80.959 296.189,86.134 296.189,86.134 C296.189,86.134 296.189,67.461 288.521,58.364 C285.645,68.419 283.728,71.770 283.728,71.770 C283.728,71.770 282.290,49.746 275.101,44.000 C271.266,50.703 272.225,73.686 272.225,73.686 C272.225,73.686 313.444,174.712 313.444,205.834 C313.444,236.956 298.930,259.648 283.728,255.629 C268.525,251.610 242.509,220.198 242.509,220.198 L219.503,194.343 L208.000,199.131 L212.793,211.580 Z" class="cls-2" fill="#1b2b32" fill-rule="evenodd"/>
      <path d="M251.990,46.000 C251.990,46.000 293.087,129.457 301.505,178.346 C309.922,224.272 302.990,247.975 284.670,248.469 C277.243,249.457 275.757,240.057 275.757,233.654 C275.757,227.252 275.757,210.938 275.757,210.938 C275.757,210.938 267.835,204.025 251.000,219.827 C265.854,240.568 287.641,267.235 287.641,267.235 C287.641,267.235 295.068,279.086 297.544,286.000 C304.733,285.292 306.456,283.037 306.456,283.037 C306.456,283.037 283.680,273.654 294.573,273.160 C305.466,273.654 324.777,278.099 340.126,267.235 C329.490,265.589 310.417,258.346 310.417,258.346 C310.417,258.346 329.728,262.790 345.078,251.432 C337.650,248.469 327.252,246.494 327.252,246.494 C327.252,246.494 346.068,237.605 353.000,224.765 C346.430,224.050 337.155,223.778 337.155,223.778 C337.155,223.778 349.534,212.420 351.019,204.025 C343.389,205.344 334.184,207.975 334.184,207.975 C334.184,207.975 352.010,187.728 349.039,174.395 C342.602,181.309 327.252,191.185 327.252,191.185 C327.252,191.185 336.660,169.457 336.165,157.605 C329.635,164.090 316.359,176.370 316.359,176.370 C316.359,176.370 328.243,158.099 323.291,134.889 C316.359,142.296 307.447,147.728 307.447,147.728 C307.447,147.728 317.845,126.000 310.417,112.173 C302.990,123.037 297.544,125.012 297.544,125.012 C297.544,125.012 304.476,105.259 293.583,91.432 C289.621,98.839 286.650,101.309 286.650,101.309 C286.650,101.309 289.126,83.037 282.689,72.667 C279.223,80.568 278.728,82.543 278.728,82.543 C278.728,82.543 277.738,70.691 273.777,61.802 C271.301,66.247 268.825,66.741 268.825,66.741 C268.825,66.741 271.487,46.926 251.990,46.000 Z" class="cls-3" fill-rule="evenodd" fill="#5b737d"/>
      <path d="M204.207,211.580 C204.207,211.580 190.787,279.569 185.994,288.187 C180.243,296.806 158.195,315.000 158.195,315.000 C147.643,308.205 134.231,291.060 134.231,291.060 L115.059,289.145 C115.059,289.145 81.988,285.793 63.296,266.163 C67.609,262.332 71.923,260.417 71.923,260.417 C71.923,260.417 57.544,254.193 54.669,247.011 C59.462,245.095 71.923,242.223 71.923,242.223 C71.923,242.223 47.000,233.125 47.000,218.283 C57.544,218.283 62.337,218.283 62.337,218.283 C62.337,218.283 47.959,206.313 47.959,196.258 C56.664,196.144 63.296,197.216 63.296,197.216 C63.296,197.216 48.917,177.106 49.876,166.572 C56.586,168.966 64.254,170.403 64.254,170.403 C64.254,170.403 52.751,152.208 55.627,139.760 C61.858,143.590 72.402,148.857 77.675,150.293 C71.444,136.408 70.485,121.565 73.840,111.989 C78.154,118.214 87.740,126.832 92.053,128.269 C89.657,113.426 90.615,100.977 95.888,90.922 C99.243,96.189 105.473,106.244 105.473,106.244 C105.473,106.244 107.870,82.304 114.101,73.686 C117.375,80.959 120.811,86.134 120.811,86.134 C120.811,86.134 120.811,67.461 128.479,58.364 C131.355,68.419 133.272,71.770 133.272,71.770 C133.272,71.770 134.710,49.746 141.899,44.000 C145.734,50.703 144.775,73.686 144.775,73.686 C144.775,73.686 103.556,174.712 103.556,205.834 C103.556,236.956 118.070,259.648 133.272,255.629 C148.475,251.610 174.491,220.198 174.491,220.198 L197.497,194.343 L209.000,199.131 L204.207,211.580 Z" class="cls-2" fill-rule="evenodd"/>
      <path d="M165.010,46.000 C165.010,46.000 123.913,129.457 115.495,178.346 C107.078,224.272 114.010,247.975 132.330,248.469 C139.757,249.457 141.243,240.057 141.243,233.654 C141.243,227.252 141.243,210.938 141.243,210.938 C141.243,210.938 149.165,204.025 166.000,219.827 C151.146,240.568 129.359,267.235 129.359,267.235 C129.359,267.235 121.932,279.086 119.456,286.000 C112.267,285.292 110.544,283.037 110.544,283.037 C110.544,283.037 133.320,273.654 122.427,273.160 C111.534,273.654 92.223,278.099 76.874,267.235 C87.510,265.589 106.583,258.346 106.583,258.346 C106.583,258.346 87.272,262.790 71.922,251.432 C79.350,248.469 89.748,246.494 89.748,246.494 C89.748,246.494 70.932,237.605 64.000,224.765 C70.570,224.050 79.845,223.778 79.845,223.778 C79.845,223.778 67.466,212.420 65.981,204.025 C73.611,205.344 82.816,207.975 82.816,207.975 C82.816,207.975 64.990,187.728 67.961,174.395 C74.398,181.309 89.748,191.185 89.748,191.185 C89.748,191.185 80.340,169.457 80.835,157.605 C87.365,164.090 100.641,176.370 100.641,176.370 C100.641,176.370 88.757,158.099 93.709,134.889 C100.641,142.296 109.553,147.728 109.553,147.728 C109.553,147.728 99.155,126.000 106.583,112.173 C114.010,123.037 119.456,125.012 119.456,125.012 C119.456,125.012 112.524,105.259 123.417,91.432 C127.379,98.839 130.350,101.309 130.350,101.309 C130.350,101.309 127.874,83.037 134.311,72.667 C137.777,80.568 138.272,82.543 138.272,82.543 C138.272,82.543 139.262,70.691 143.223,61.802 C145.699,66.247 148.175,66.741 148.175,66.741 C148.175,66.741 145.513,46.926 165.010,46.000 Z" class="cls-3" fill-rule="evenodd" fill="#5b737d"/>
      <path d="M198.000,197.000 L261.000,276.000 C261.000,276.000 278.000,297.500 282.000,318.000 C284.000,330.500 285.000,356.000 285.000,356.000 C285.000,356.000 287.000,371.000 298.000,369.000 C309.000,367.000 300.383,324.227 300.000,319.000 C299.617,313.773 288.115,280.719 283.000,272.000 C277.885,263.281 218.000,184.000 218.000,184.000 L198.000,197.000 Z" class="cls-4" fill-rule="evenodd" fill="#5b7180"/>
      <path d="M218.000,196.987 L154.739,275.907 C154.739,275.907 137.668,297.385 133.652,317.864 C131.644,330.352 130.639,355.826 130.639,355.826 C130.639,355.826 128.631,370.811 117.586,368.813 C106.540,366.815 115.193,324.085 115.577,318.863 C115.962,313.642 127.511,280.621 132.648,271.911 C137.784,263.201 197.917,184.000 197.917,184.000 L218.000,196.987 Z" class="cls-4" fill-rule="evenodd" fill="#5b7180"/>
      <path d="M296.000,369.000 C296.000,349.667 294.238,316.859 291.000,305.000 C284.625,281.650 260.000,255.000 260.000,255.000 L216.000,199.000 L208.000,210.000 L198.994,198.000 L155.968,255.000 C155.968,255.000 135.330,279.650 128.951,303.000 C125.711,314.859 119.946,349.667 119.946,369.000 C111.941,367.667 104.269,364.667 107.938,332.000 C111.607,299.333 113.608,290.000 125.949,269.000 C138.290,248.000 186.987,186.000 186.987,186.000 L177.981,161.000 L178.982,95.000 C178.982,95.000 182.697,88.922 186.987,87.000 L204.998,145.000 C204.998,145.000 198.994,147.333 198.994,152.000 C198.994,156.667 202.997,160.000 208.000,160.000 C213.000,160.000 217.000,156.667 217.000,152.000 C217.000,147.333 211.000,145.000 211.000,145.000 L229.000,87.000 C233.288,88.922 237.000,95.000 237.000,95.000 L238.000,161.000 L229.000,186.000 C229.000,186.000 277.667,248.000 290.000,269.000 C302.333,290.000 304.333,299.333 308.000,332.000 C311.667,364.667 304.000,367.667 296.000,369.000 Z" class="cls-5" fill-rule="evenodd" fill="#919ba1"/>
      <path d="M225.950,244.759 C225.047,245.167 223.982,244.771 223.571,243.873 L217.917,231.520 C217.506,230.623 217.905,229.564 218.808,229.156 C219.711,228.747 220.776,229.144 221.187,230.042 L226.841,242.394 C227.252,243.292 226.853,244.350 225.950,244.759 ZM215.989,247.001 C214.977,247.137 214.045,246.434 213.906,245.432 L211.993,231.639 C211.854,230.637 212.561,229.714 213.572,229.579 C214.584,229.443 215.516,230.146 215.655,231.148 L217.568,244.941 C217.707,245.943 217.000,246.866 215.989,247.001 ZM208.000,248.000 C206.895,248.000 206.000,247.105 206.000,246.000 L206.000,232.000 C206.000,230.895 206.895,230.000 208.000,230.000 C209.105,230.000 210.000,230.895 210.000,232.000 L210.000,246.000 C210.000,247.105 209.105,248.000 208.000,248.000 ZM202.094,245.432 C201.955,246.434 201.023,247.137 200.011,247.001 C199.000,246.866 198.293,245.943 198.432,244.941 L200.345,231.148 C200.484,230.146 201.416,229.443 202.428,229.579 C203.439,229.714 204.146,230.637 204.007,231.639 L202.094,245.432 ZM192.429,243.873 C192.018,244.771 190.953,245.167 190.050,244.759 C189.147,244.350 188.748,243.292 189.159,242.394 L194.813,230.042 C195.224,229.144 196.289,228.747 197.192,229.156 C198.095,229.564 198.494,230.623 198.083,231.520 L192.429,243.873 Z" class="cls-4" fill-rule="evenodd" fill="#5b7180"/>
    </g>
  </g>
</svg>
