<svg xmlns="http://www.w3.org/2000/svg" xmlns:xlink="http://www.w3.org/1999/xlink" preserveAspectRatio="xMidYMid" width="417" height="423" viewBox="0 0 417 423">
  <g>
    <ellipse cx="208.5" cy="211.5" rx="203.5" ry="206.5" class="cls-1" fill="#9b8e61" stroke="#393222" stroke-width="6px"/>
    <g>
      <path d="M152.000,338.000 L134.000,339.000 L162.000,373.000 L166.000,359.000 C166.000,359.000 240.000,306.500 258.000,286.000 C259.520,294.434 271.000,307.500 283.000,296.000 C266.588,293.682 266.948,279.220 271.000,275.000 C277.707,268.016 286.235,270.138 289.000,273.000 C300.000,265.000 352.000,229.000 352.000,229.000 C352.000,229.000 384.000,211.500 382.000,165.000 C371.879,177.004 354.000,190.500 341.000,199.000 C328.000,207.500 286.000,235.000 286.000,235.000 L249.000,263.000 C249.000,263.000 235.500,262.000 238.000,249.000 C235.500,245.500 222.500,254.500 241.000,273.000 C226.680,279.953 200.967,296.055 152.000,338.000 Z" class="cls-2" fill="#463c32" fill-rule="evenodd"/>
      <path d="M264.007,338.000 L282.000,339.000 L254.011,373.000 L250.012,359.000 C250.012,359.000 176.040,306.500 158.047,286.000 C156.528,294.434 145.052,307.500 133.056,296.000 C149.462,293.682 149.103,279.220 145.052,275.000 C138.348,268.016 129.823,270.138 127.059,273.000 C116.063,265.000 64.082,229.000 64.082,229.000 C64.082,229.000 32.094,211.500 34.094,165.000 C44.211,177.004 62.083,190.500 75.078,199.000 C88.073,207.500 130.057,235.000 130.057,235.000 L167.043,263.000 C167.043,263.000 180.538,262.000 178.039,249.000 C180.538,245.500 193.533,254.500 175.040,273.000 C189.355,279.953 215.058,296.055 264.007,338.000 Z" class="cls-3" fill-rule="evenodd" fill="#544c37"/>
      <path d="M207.500,40.004 L235.349,111.598 L301.989,111.498 L242.561,153.667 L266.718,221.996 L207.500,176.461 L149.282,221.996 L172.439,153.667 L113.011,111.498 L179.651,111.598 L207.500,40.004 " class="cls-4" fill-rule="evenodd" fill="#322b23"/>
    </g>
  </g>
</svg>
