<svg xmlns="http://www.w3.org/2000/svg" xmlns:xlink="http://www.w3.org/1999/xlink" preserveAspectRatio="xMidYMid" width="51" height="51" viewBox="0 0 51 51">
  <path fill-rule="evenodd" fill="#ffe400" d="M40.035,26.307 C40.681,25.067 41.122,23.711 41.436,22.299 C44.406,20.006 46.246,16.455 46.246,12.519 L46.246,10.262 L42.824,10.262 L43.100,7.508 C43.100,7.508 47.518,7.508 47.623,7.508 C48.384,7.508 49.000,8.124 49.000,8.885 L49.000,12.519 C49.000,18.575 45.451,23.891 40.035,26.307 ZM42.115,4.754 L40.607,4.754 L39.074,20.093 C38.377,27.047 32.490,32.293 25.500,32.293 C18.510,32.293 12.623,27.047 11.926,20.093 L10.392,4.754 L8.885,4.754 C8.124,4.754 7.508,4.138 7.508,3.377 C7.508,2.616 8.124,2.000 8.885,2.000 L42.115,2.000 C42.876,2.000 43.492,2.616 43.492,3.377 C43.492,4.138 42.876,4.754 42.115,4.754 ZM32.835,12.948 L28.620,12.335 L26.734,8.516 C26.272,7.575 24.728,7.575 24.265,8.516 L22.380,12.335 L18.165,12.948 C17.039,13.112 16.586,14.502 17.401,15.296 L20.452,18.271 L19.733,22.469 C19.539,23.592 20.729,24.454 21.731,23.920 L25.500,21.938 L29.269,23.920 C30.268,24.446 31.462,23.601 31.267,22.469 L30.548,18.271 L33.599,15.296 C34.413,14.502 33.961,13.112 32.835,12.948 ZM27.712,18.022 L28.082,20.184 L26.141,19.164 C25.739,18.952 25.261,18.952 24.859,19.164 L22.918,20.184 L23.288,18.022 C23.365,17.575 23.217,17.119 22.893,16.804 L21.322,15.272 L23.492,14.956 C23.942,14.892 24.329,14.609 24.529,14.203 L25.500,12.237 L26.471,14.203 C26.671,14.609 27.058,14.892 27.508,14.956 L29.678,15.272 L28.107,16.804 C27.783,17.119 27.636,17.575 27.712,18.022 ZM8.176,10.262 L4.754,10.262 L4.754,11.904 C4.754,15.764 6.553,19.248 9.416,21.543 C9.661,22.952 10.061,24.294 10.635,25.546 C5.442,23.074 2.000,17.836 2.000,11.904 L2.000,8.885 C2.000,8.124 2.616,7.508 3.377,7.508 C3.478,7.508 7.901,7.508 7.901,7.508 L8.176,10.262 ZM14.393,46.246 L15.861,46.246 L15.861,44.869 C15.861,42.591 17.714,40.647 19.992,40.647 L21.369,40.647 L21.369,34.457 C22.697,34.803 24.065,35.047 25.500,35.047 C26.935,35.047 28.303,34.803 29.631,34.457 L29.631,40.647 L31.008,40.647 C33.286,40.647 35.230,42.591 35.230,44.869 L35.230,46.246 L36.607,46.246 C37.368,46.246 37.984,46.862 37.984,47.623 C37.984,48.384 37.368,49.000 36.607,49.000 L14.393,49.000 C13.631,49.000 13.016,48.384 13.016,47.623 C13.016,46.862 13.631,46.246 14.393,46.246 Z"/>
</svg>
