<svg xmlns="http://www.w3.org/2000/svg" xmlns:xlink="http://www.w3.org/1999/xlink" preserveAspectRatio="xMidYMid" width="202" height="162" viewBox="0 0 202 162">
  <defs>
    <style>
      .cls-1 {
        fill: #19412e;
        stroke: #32434c;
        stroke-linejoin: round;
        stroke-width: 1px;
        fill-opacity: 0;
        fill-rule: evenodd;
      }
    </style>
  </defs>
  <path d="M161.909,10.003 C162.037,3.892 161.807,0.029 161.807,0.029 L101.305,-0.015 L101.305,-0.015 L100.998,-0.015 L100.692,-0.015 L100.692,-0.015 L40.183,0.029 C40.183,0.029 39.959,3.892 40.087,10.003 L0.011,10.003 L0.011,16.524 C0.011,18.013 0.266,53.137 22.224,72.377 C31.388,80.402 42.816,84.437 56.292,84.443 C58.326,84.443 60.425,84.311 62.548,84.135 C70.202,94.483 79.041,101.722 88.989,105.335 L88.989,133.989 L59.787,133.989 L59.787,151.928 L50.144,151.928 L50.144,161.987 L100.692,161.987 L101.305,161.987 L151.852,161.987 L151.852,151.928 L142.203,151.928 L142.203,133.989 L113.007,133.989 L113.007,105.335 C122.949,101.722 131.788,94.483 139.448,84.135 C141.578,84.311 143.677,84.443 145.704,84.443 C159.180,84.437 170.608,80.402 179.766,72.377 C201.730,53.137 201.986,18.013 201.986,16.524 L201.986,10.003 L161.909,10.003 ZM31.044,62.652 C18.499,51.693 14.787,32.935 13.691,23.049 L40.846,23.049 C41.994,35.368 44.698,50.714 50.935,64.203 C52.077,66.680 53.282,69.024 54.507,71.319 C45.150,70.967 37.275,68.083 31.044,62.652 ZM170.953,62.652 C164.722,68.090 156.846,70.967 147.496,71.319 C148.721,69.031 149.926,66.680 151.068,64.203 C157.305,50.714 160.009,35.368 161.150,23.049 L188.306,23.049 C187.209,32.928 183.497,51.686 170.953,62.652 Z" class="cls-1"/>
</svg>
