<svg xmlns="http://www.w3.org/2000/svg" xmlns:xlink="http://www.w3.org/1999/xlink" preserveAspectRatio="xMidYMid" width="29" height="26" viewBox="0 0 29 26">
  <path fill="#fff" fill-rule="evenodd" d="M12.083,0.000 L12.083,0.000 C18.757,0.000 24.167,4.416 24.167,9.863 C24.167,15.310 18.757,19.726 12.083,19.726 C11.442,19.726 10.813,19.685 10.200,19.606 C7.604,22.214 4.607,22.681 1.611,22.750 L1.611,22.112 C3.229,21.316 4.531,19.866 4.531,18.208 C4.531,17.977 4.513,17.750 4.480,17.528 C1.747,15.720 -0.000,12.958 -0.000,9.863 C-0.000,4.416 5.410,0.000 12.083,0.000 ZM25.073,22.107 C25.073,23.528 25.987,24.771 27.389,25.453 L27.389,26.000 C24.793,25.941 22.410,25.540 20.161,23.305 C19.628,23.373 19.083,23.408 18.528,23.408 C16.125,23.408 13.911,22.754 12.143,21.655 C15.785,21.642 19.224,20.465 21.831,18.337 C23.145,17.264 24.182,16.006 24.913,14.596 C25.687,13.101 26.080,11.509 26.080,9.863 C26.080,9.598 26.069,9.334 26.048,9.072 C27.875,10.593 29.000,12.667 29.000,14.954 C29.000,17.607 27.486,19.974 25.117,21.524 C25.089,21.714 25.073,21.909 25.073,22.107 Z"/>
</svg>
