<svg xmlns="http://www.w3.org/2000/svg" xmlns:xlink="http://www.w3.org/1999/xlink" preserveAspectRatio="xMidYMid" width="26" height="27" viewBox="0 0 26 27">
  <path fill="#a6d9d6" fill-rule="evenodd" d="M25.981,18.488 C25.940,18.253 25.836,18.054 25.672,17.890 C25.306,17.526 24.882,17.450 24.399,17.661 C23.102,18.259 21.758,18.558 20.368,18.558 C18.623,18.558 17.014,18.130 15.541,17.274 C14.068,16.418 12.901,15.257 12.040,13.791 C11.180,12.325 10.750,10.725 10.750,8.989 C10.750,7.641 11.018,6.360 11.554,5.146 C12.090,3.932 12.865,2.868 13.879,1.953 C14.268,1.590 14.356,1.168 14.144,0.687 C13.944,0.206 13.584,-0.022 13.066,0.001 C11.263,0.071 9.554,0.473 7.939,1.206 C6.324,1.939 4.936,2.903 3.775,4.099 C2.614,5.295 1.695,6.711 1.017,8.347 C0.339,9.983 0.000,11.698 0.000,13.492 C0.000,15.321 0.360,17.068 1.079,18.734 C1.798,20.399 2.764,21.835 3.978,23.043 C5.192,24.251 6.636,25.212 8.310,25.927 C9.984,26.643 11.740,27.001 13.579,27.001 C16.219,27.001 18.656,26.288 20.889,24.863 C23.123,23.439 24.793,21.536 25.902,19.156 C25.996,18.945 26.022,18.722 25.981,18.488 ZM18.414,23.667 C16.888,24.388 15.276,24.749 13.579,24.749 C12.046,24.749 10.582,24.450 9.185,23.852 C7.788,23.254 6.586,22.454 5.578,21.451 C4.571,20.449 3.766,19.253 3.165,17.863 C2.564,16.473 2.263,15.016 2.263,13.492 C2.263,10.971 3.015,8.720 4.517,6.738 C6.020,4.756 7.956,3.413 10.325,2.710 C9.099,4.645 8.486,6.738 8.486,8.989 C8.486,11.124 9.017,13.100 10.078,14.917 C11.138,16.735 12.582,18.171 14.409,19.227 C16.236,20.282 18.222,20.810 20.368,20.810 C21.027,20.810 21.676,20.757 22.312,20.651 C21.240,21.941 19.940,22.947 18.414,23.667 Z"/>
</svg>
