<svg xmlns="http://www.w3.org/2000/svg" xmlns:xlink="http://www.w3.org/1999/xlink" preserveAspectRatio="xMidYMid" width="11" height="11" viewBox="0 0 11 11">
  <defs>
    <style>
      .cls-1 {
        fill: #fff;
        fill-rule: evenodd;
      }
    </style>
  </defs>
  <path d="M10.615,8.798 L7.831,6.019 C8.123,5.444 8.281,4.806 8.281,4.143 C8.281,3.036 7.851,1.996 7.069,1.213 C6.287,0.431 5.248,-0.000 4.142,-0.000 C3.036,-0.000 1.996,0.431 1.215,1.213 C0.433,1.996 0.002,3.036 0.002,4.143 C0.002,5.250 0.433,6.290 1.215,7.072 C1.997,7.855 3.036,8.286 4.142,8.286 C4.804,8.286 5.442,8.128 6.016,7.836 L8.792,10.622 C9.044,10.874 9.374,11.000 9.704,11.000 C10.033,11.000 10.364,10.874 10.615,10.622 C11.119,10.118 11.119,9.302 10.615,8.798 ZM2.309,5.978 C1.819,5.487 1.549,4.836 1.549,4.143 C1.549,3.450 1.819,2.798 2.309,2.308 C2.798,1.818 3.449,1.548 4.142,1.548 C4.834,1.548 5.485,1.818 5.975,2.308 C6.465,2.798 6.735,3.450 6.735,4.143 C6.735,4.836 6.465,5.487 5.975,5.978 C5.485,6.468 4.834,6.738 4.142,6.738 C3.449,6.738 2.798,6.468 2.309,5.978 Z" class="cls-1"/>
</svg>
