<svg xmlns="http://www.w3.org/2000/svg" xmlns:xlink="http://www.w3.org/1999/xlink" preserveAspectRatio="xMidYMid" width="26" height="26" viewBox="0 0 26 26">
  <path fill="#fff" fill-rule="evenodd" d="M25.536,23.388 L13.486,11.343 L16.405,8.430 C16.886,8.855 17.626,8.834 18.081,8.379 C18.557,7.898 18.557,7.127 18.081,6.646 L11.789,0.361 C11.313,-0.120 10.536,-0.120 10.060,0.361 C9.579,0.837 9.579,1.613 10.060,2.089 L10.009,2.037 L2.019,10.019 L2.070,10.075 C1.594,9.594 0.818,9.594 0.342,10.075 C-0.139,10.551 -0.139,11.327 0.342,11.803 L6.629,18.093 C7.111,18.569 7.887,18.569 8.363,18.093 C8.839,17.612 8.839,16.841 8.363,16.360 L8.415,16.412 L11.333,13.500 L23.378,25.540 C23.973,26.135 24.941,26.135 25.536,25.540 C26.131,24.945 26.131,23.983 25.536,23.388 Z"/>
</svg>
